{
"goal_1" : [ {
        "concept": {
            "name" : "goal_1",
            "truthValue" : 0.9
        },
        "relation": "goal_ambition",
        "value": "0.5"
    }, {
        "concept": {
            "name" : "goal_1",
            "truthValue" : 0.9
        },
        "relation": "other",
        "value": ""
    } ],
"goal_2" : [ {
        "concept": {
            "name" : "goal_2",
            "truthValue" : 0.9
        },
        "relation": "some",
        "value": ""
    }, {
        "concept": {
            "name" : "goal_3",
            "truthValue" : 0.9
        },
        "relation": "goal_ambition",
        "value": "0.5"
    } ]
}